Fake_Instagram - 5 FCA - Formal Concept Analysis
…
5.2 Preparación

Al haber factorizado los datos, vamos a trabajar sobre los mismos, ya que al hacer el proceso de scaling nos van a salir mejores resultados con categorías discretas que con datos númericos diferentes.

5.2.1 Contexto Formal

Primero, como ya tenemos los datos categorizados, crearemos el contexto formal.

train_factor$...1 <- NULL
contexto_train <- FormalContext$new(train_factor)
contexto_train

FormalContext with 576 objects and 12 attributes.
# A tibble: 576 × 12
   `profile pic` `nums/length username` `fullname words` `nums/length fullname`
           <dbl> <chr>                  <chr>            <chr>                 
 1             1 Medio                  Corto            Bajo                  
 2             1 Bajo                   Medio            Bajo                  
 3             1 Bajo                   Medio            Bajo                  
 4             1 Bajo                   Corto            Bajo                  
 5             1 Bajo                   Medio            Bajo                  
 6             1 Bajo                   Medio            Bajo                  
 7             1 Bajo                   Medio            Bajo                  
 8             1 Bajo                   Medio            Bajo                  
 9             1 Bajo                   Corto            Bajo                  
10             1 Bajo                   Medio            Bajo                  
# ℹ 566 more rows
# ℹ 8 more variables: `name==username` <dbl>, `description length` <chr>,
#   `external URL` <dbl>, private <dbl>, `#posts` <chr>, `#followers` <chr>,
#   `#follows` <chr>, fake <dbl>
…
